{
  "project_info": {
    "project_number": "1008817891013",
    "firebase_url": "https://netbus-9d4d0.firebaseio.com",
    "project_id": "netbus-9d4d0",
    "storage_bucket": "netbus-9d4d0.appspot.com"
  },
  "client": [
    {
      "client_info": {
        "mobilesdk_app_id": "1:1008817891013:android:8c2a7ecdbc2cc35a",
        "android_client_info": {
          "package_name": "com.example.netbus"
        }
      },
      "oauth_client": [
        {
          "client_id": "1008817891013-6daj23egactrnkgmhr2noq9e81co2kge.apps.googleusercontent.com",
          "client_type": 3
        }
      ],
      "api_key": [
        {
          "current_key": "AIzaSyCphCNo3t-6xBQcLghuv5c9BQZHqWX0504"
        }
      ],
      "services": {
        "analytics_service": {
          "status": 1
        },
        "appinvite_service": {
          "status": 1,
          "other_platform_oauth_client": []
        },
        "ads_service": {
          "status": 2
        }
      }
    },
    {
      "client_info": {
        "mobilesdk_app_id": "1:1008817891013:android:41825e0953d28471",
        "android_client_info": {
          "package_name": "com.example.netbus.netbus"
        }
      },
      "oauth_client": [
        {
          "client_id": "1008817891013-6daj23egactrnkgmhr2noq9e81co2kge.apps.googleusercontent.com",
          "client_type": 3
        }
      ],
      "api_key": [
        {
          "current_key": "AIzaSyCphCNo3t-6xBQcLghuv5c9BQZHqWX0504"
        }
      ],
      "services": {
        "analytics_service": {
          "status": 1
        },
        "appinvite_service": {
          "status": 1,
          "other_platform_oauth_client": []
        },
        "ads_service": {
          "status": 2
        }
      }
    }
  ],
  "configuration_version": "1"
}